{
    "page": 1,
    "total_results": 1204,
    "total_pages": 61,
    "results": [
        {
            "vote_count": 1,
            "id": 263856,
            "video": false,
            "vote_average": 10,
            "title": "Cock Fight",
            "popularity": 0.6,
            "poster_path": null,
            "original_language": "en",
            "original_title": "Cock Fight",
            "genre_ids": [
                99
            ],
            "backdrop_path": null,
            "adult": false,
            "overview": "Two cocks fight whilst being watched by two men.",
            "release_date": "1896-12-01"
        },
        {
            "vote_count": 1,
            "id": 355995,
            "video": true,
            "vote_average": 8,
            "title": "Brighton Street Scene",
            "popularity": 0.6,
            "poster_path": null,
            "original_language": "en",
            "original_title": "Brighton Street Scene",
            "genre_ids": [],
            "backdrop_path": null,
            "adult": false,
            "overview": "Lost film from 1888, directed by William Friese-Greene.",
            "release_date": "1888-01-01"
        },
        {
            "vote_count": 2,
            "id": 194608,
            "video": false,
            "vote_average": 8,
            "title": "Danse fleur de lotus",
            "popularity": 0.6,
            "poster_path": "/uj1s42zDqJOPeHGj5R4QeIhNERE.jpg",
            "original_language": "fr",
            "original_title": "Danse fleur de lotus",
            "genre_ids": [
                99
            ],
            "backdrop_path": null,
            "adult": false,
            "overview": "Serpentine dance.",
            "release_date": "1897-05-18"
        },
        {
            "vote_count": 3,
            "id": 191596,
            "video": false,
            "vote_average": 7.3,
            "title": "Jeux d'enfants dans une rue",
            "popularity": 0.6,
            "poster_path": null,
            "original_language": "en",
            "original_title": "Jeux d'enfants dans une rue",
            "genre_ids": [],
            "backdrop_path": null,
            "adult": false,
            "overview": "No Overview",
            "release_date": "1896-01-01"
        },
        {
            "vote_count": 3,
            "id": 105165,
            "video": false,
            "vote_average": 7.3,
            "title": "Giant Coal Dumper",
            "popularity": 0.6,
            "poster_path": "/kDdmxcYOlKTBcdFBLUtKrn8NjUH.jpg",
            "original_language": "en",
            "original_title": "Giant Coal Dumper",
            "genre_ids": [
                99
            ],
            "backdrop_path": null,
            "adult": false,
            "overview": "“Shows how a full carload of coal is loaded onto a vessel every thirty seconds at the great Erie Railroad Docks, Cleveland, Ohio. Great clouds of coal dust rise as each car is unloaded.”",
            "release_date": "1897-07-01"
        },
        {
            "vote_count": 9,
            "id": 321749,
            "video": false,
            "vote_average": 7.1,
            "title": "La Sortie de l'usine Lumière",
            "popularity": 0.6,
            "poster_path": "/5P7ikd7vYqHsLB3SYI3SjRUYO3k.jpg",
            "original_language": "xx",
            "original_title": "La Sortie de l'usine Lumière",
            "genre_ids": [
                99
            ],
            "backdrop_path": null,
            "adult": false,
            "overview": "Workers leaving the Lumière factory, immediately followed by a black horse and carriage. Three separate versions of this film exist, this is the first remake \"one horse\" version.",
            "release_date": "1895-03-22"
        },
        {
            "vote_count": 1,
            "id": 568034,
            "video": false,
            "vote_average": 7,
            "title": "Something Good - Negro Kiss",
            "popularity": 0.6,
            "poster_path": "/5gMoWxhqhg8YbGzSSRF3ncmUZ6h.jpg",
            "original_language": "en",
            "original_title": "Something Good - Negro Kiss",
            "genre_ids": [
                10749,
                35
            ],
            "backdrop_path": null,
            "adult": false,
            "overview": "Earliest known example of African American intimacy on screen.",
            "release_date": "1898-01-01"
        },
        {
            "vote_count": 1,
            "id": 232637,
            "video": false,
            "vote_average": 7,
            "title": "Badescener fra Skovshoved",
            "popularity": 0.6,
            "poster_path": null,
            "original_language": "da",
            "original_title": "Badescener fra Skovshoved",
            "genre_ids": [],
            "backdrop_path": null,
            "adult": false,
            "overview": "Fun at the beach.",
            "release_date": "1899-09-02"
        },
        {
            "vote_count": 1,
            "id": 231653,
            "video": false,
            "vote_average": 7,
            "title": "Butterfly Dance",
            "popularity": 0.6,
            "poster_path": null,
            "original_language": "en",
            "original_title": "Butterfly Dance",
            "genre_ids": [],
            "backdrop_path": null,
            "adult": false,
            "overview": "\"As performed by Annabelle, the famous premier danseuse. A charmingly graceful representation of the light and airy flight of a butterfly. Beautiful when colored.\"",
            "release_date": "1897-10-30"
        },
        {
            "vote_count": 3,
            "id": 195608,
            "video": false,
            "vote_average": 7,
            "title": "Why Mrs. Jones Got a Divorce",
            "popularity": 0.6,
            "poster_path": "/96w4lXpjOUsI1dRXuLvQyfNXPmr.jpg",
            "original_language": "en",
            "original_title": "Why Mrs. Jones Got a Divorce",
            "genre_ids": [
                35
            ],
            "backdrop_path": null,
            "adult": false,
            "overview": "This scene opens by showing a pretty cook mixing bread in the kitchen. Jones comes in unexpectedly from a trip and carries a dress suitcase. He inquires for his wife and is told by the cook that she is absent. Jones is hungry and asks for something to eat. The cook is very obliging and Jones becomes unruly, chuckles the cook under the chin. The cook puts her arms around Jones' neck and leaves finger imprints of flour on his back. This is where the trouble commences. (Edison catalogue)",
            "release_date": "1900-01-01"
        },
        {
            "vote_count": 2,
            "id": 194247,
            "video": false,
            "vote_average": 7,
            "title": "Bains de Diane",
            "popularity": 0.6,
            "poster_path": null,
            "original_language": "xx",
            "original_title": "Bains de Diane",
            "genre_ids": [],
            "backdrop_path": null,
            "adult": false,
            "overview": "A large pool in Milan has diving boards set at different heights. As some people watch from along the pool's edge, others enjoy themselves by diving into the pool, using a variety of different styles.",
            "release_date": "1896-07-12"
        },
        {
            "vote_count": 1,
            "id": 155858,
            "video": false,
            "vote_average": 7,
            "title": "Peeping Tom",
            "popularity": 0.6,
            "poster_path": "/3rlAyKxyevgKBFziULaYQJZVzRS.jpg",
            "original_language": "en",
            "original_title": "Peeping Tom",
            "genre_ids": [
                35
            ],
            "backdrop_path": null,
            "adult": false,
            "overview": "A hotel clerk takes to spying through the keyholes on his patrons with disastrous results!",
            "release_date": "1897-05-31"
        },
        {
            "vote_count": 4,
            "id": 152219,
            "video": false,
            "vote_average": 7,
            "title": "Feeding the Doves",
            "popularity": 0.6,
            "poster_path": "/vXLRGmlzNd7CcM8FhtZat2zfLm4.jpg",
            "original_language": "en",
            "original_title": "Feeding the Doves",
            "genre_ids": [
                99
            ],
            "backdrop_path": null,
            "adult": false,
            "overview": "A woman and a young girl each carry containers of bird feed, and they toss occasional handfuls to the chickens and doves in the farmyard. Most of the chickens stay nearby, but the doves occasionally fly off and then return to eat more.",
            "release_date": "1896-10-23"
        },
        {
            "vote_count": 4,
            "id": 119968,
            "video": false,
            "vote_average": 6.8,
            "title": "Automated Hat-Maker and Sausage-Grinder",
            "popularity": 0.6,
            "poster_path": "/jZJdK865H2BuW8dFHEP1a6MLhXR.jpg",
            "original_language": "fr",
            "original_title": "Chapellerie et charcuterie mécanique",
            "genre_ids": [
                35
            ],
            "backdrop_path": null,
            "adult": false,
            "overview": "A machine churns out sausages on one side and spits out hats on the other.",
            "release_date": "1900-01-01"
        },
        {
            "vote_count": 7,
            "id": 106023,
            "video": false,
            "vote_average": 6.7,
            "title": "The Mysterious Knight",
            "popularity": 0.6,
            "poster_path": "/nvjYkCdOAIn1CajCvOuyjRKBaDB.jpg",
            "original_language": "fr",
            "original_title": "Le chevalier mystère",
            "genre_ids": [
                14
            ],
            "backdrop_path": null,
            "adult": false,
            "overview": "A knight performs several magic tricks with a disembodied head materialized from a chalkboard drawing.",
            "release_date": "1899-01-01"
        },
        {
            "vote_count": 6,
            "id": 194110,
            "video": false,
            "vote_average": 6.7,
            "title": "Écriture à l'envers",
            "popularity": 0.6,
            "poster_path": "/4nuw5GRCqzhi0huO87vEHEmQCce.jpg",
            "original_language": "xx",
            "original_title": "Écriture à l'envers",
            "genre_ids": [],
            "backdrop_path": null,
            "adult": false,
            "overview": "Félicien Trewey performs a trick by writing backwards the words \"Ladies and gentlemen, my grateful thanks\" on a board.",
            "release_date": "1896-08-30"
        },
        {
            "vote_count": 8,
            "id": 342727,
            "video": false,
            "vote_average": 6.6,
            "title": "The Hallucinated Alchemist",
            "popularity": 0.6,
            "poster_path": "/ybfbtbZ2eIy7qOY78uRuePe1lTo.jpg",
            "original_language": "fr",
            "original_title": "L'hallucination de l'alchimiste",
            "genre_ids": [
                27,
                14
            ],
            "backdrop_path": null,
            "adult": false,
            "overview": "The film features a star with five female heads and a giant face that has people coming out of its mouth. The Flicker Alley DVD \"Georges Méliès: Encore New Discoveries (1896-1911)\" misidentified a partial hand-colored print of the 1906 film \"Alchimiste Parafaragaramus ou La cornue infernale\" (The Mysterious Retort) as this film, \"L'hallucination de l'alchimiste\" (An Hallucinated Alchemist) from 1897, which continues to be considered a lost film.",
            "release_date": "1897-05-31"
        },
        {
            "vote_count": 2,
            "id": 374790,
            "video": false,
            "vote_average": 6.5,
            "title": "Arrivée d'un train (gare de Vincennes)",
            "popularity": 0.6,
            "poster_path": null,
            "original_language": "en",
            "original_title": "Arrivée d'un train (gare de Vincennes)",
            "genre_ids": [],
            "backdrop_path": null,
            "adult": false,
            "overview": "Arrival of a Train at Vincennes Station",
            "release_date": "1896-01-01"
        },
        {
            "vote_count": 2,
            "id": 318808,
            "video": false,
            "vote_average": 6.5,
            "title": "Panorama pris en chemin de fer, départ de Dammurey",
            "popularity": 0.6,
            "poster_path": null,
            "original_language": "en",
            "original_title": "Panorama pris en chemin de fer, départ de Dammurey",
            "genre_ids": [],
            "backdrop_path": null,
            "adult": false,
            "overview": "Shot from a train as it leaves a station.",
            "release_date": "1897-01-16"
        },
        {
            "vote_count": 2,
            "id": 318790,
            "video": false,
            "vote_average": 6.5,
            "title": "Panorama pris depuis une plate-forme mobile",
            "popularity": 0.6,
            "poster_path": null,
            "original_language": "fr",
            "original_title": "Panorama pris depuis une plate-forme mobile",
            "genre_ids": [],
            "backdrop_path": null,
            "adult": false,
            "overview": "Lumiere panorama shot.",
            "release_date": "1896-01-16"
        }
    ]
}
